NAME,DESCRIPTION,MOBILE,INVITEE COUNT,BASE,CATEGORY,LABEL,VIP,PHYSICAL INVITATION,AUTO RSVP
Anhar Fitra Nur Satya,"Wiwiek Rosa, Fathariz Arthuri, Bryan Syamnagoro, Elsa Apriana, Elbry, Brysa",6287885267892,7,Bekasi,MALE,"max_50_pax,max_125_pax,streaming",yes,no,yes
Rizky Ramadhani Zain,"Abdillah, Sri Subardini, Ilham Nurhadi, Hilmy Nur Hidayat, Luthfi Nur Fauzi, Nabilah Nur Laila",6285722165294,7,Bandung,FEMALE,"max_50_pax,max_125_pax,streaming",yes,no,yes
